0.0000000000000000e+00
3.3246556749053136e-02
5.7584725466039662e-02
7.3014506151028433e-02
9.0831282215015019e-02
9.9739670247054255e-02
1.1103505365809133e-01
1.2471743244815814e-01
1.3776021775405067e-01
1.4189461502803274e-01
1.4841600768101265e-01
1.5732439571300882e-01
1.6559319026084424e-01
1.7624898018773280e-01
1.8626517663044709e-01
1.9564177958901541e-01
2.0518976110512493e-01
2.0582935458935098e-01
2.0885594345257485e-01
2.1426952769480512e-01
2.1904351845288450e-01
2.2620450458999364e-01
2.3272589724294204e-01
2.3860769641174806e-01
2.4466087413810156e-01
2.5310104724352539e-01
2.6090162686477492e-01
2.6806261300187217e-01
2.7539497769651688e-01
2.8208774890703647e-01
2.8895189867509724e-01
2.9598742700071862e-01
3.0297703458022712e-01
3.0105825412787196e-01
3.0152646905451463e-01
3.0438167936015642e-01
3.0659729618165454e-01
3.1119990838216538e-01
3.1516292709852534e-01
3.1848635233074557e-01
3.2198115612051786e-01
3.2786295528932985e-01
3.3310516097398096e-01
3.3770777317448625e-01
3.4248176393254259e-01
3.4661616120646999e-01
3.5092193703794494e-01
3.5539909142697956e-01
3.5983032506990686e-01
3.6664855409191699e-01
3.7282718962975281e-01
3.7836623168343181e-01
3.8407665229466292e-01
3.8914747942175804e-01
3.9438968510640054e-01
3.9980326934860533e-01
4.0517093284470029e-01
4.0989900285668507e-01
4.1479845142621108e-01
4.1986927855329215e-01
4.2489418493426601e-01
4.3009046987281463e-01
4.3524083406525049e-01
4.4034527751158814e-01
4.4546202538474799e-01
4.4167038720508273e-01
4.4026574387413736e-01
4.4124809539190801e-01
4.4159085356762767e-01
4.4432060659206973e-01
4.4641076627445564e-01
4.4786133261479122e-01
4.4948327747461009e-01
4.5349221718316823e-01
4.5686156354966312e-01
4.5959131657410413e-01
4.6249244811802664e-01
4.6475398631990517e-01
4.6718690304126342e-01
4.6979119828210852e-01
4.7234957278705170e-01
4.7729494214076407e-01
4.8160071815240313e-01
4.8526690082198110e-01
4.8910446201104063e-01
4.9230242985805245e-01
4.9567177622454323e-01
4.9921250111052229e-01
5.0270730526059726e-01
5.0556251606864067e-01
5.0858910539615942e-01
5.1178707324316197e-01
5.1493912035426226e-01
5.1826254598485910e-01
5.2154005087954991e-01
5.2477163503834423e-01
5.2801552362123105e-01
5.3364640705293198e-01
5.3863769714254617e-01
5.4298939389008771e-01
5.4751246915711238e-01
5.5139595108208073e-01
5.5545081152652886e-01
5.5967705049046823e-01
5.6385736871850123e-01
5.6739809360449756e-01
5.7111019700996901e-01
5.7499367893492614e-01
5.7883124012397935e-01
5.8284017983253333e-01
5.8680319880517884e-01
5.9072029704192697e-01
5.9464969970276660e-01
5.9793950902159487e-01
6.0140069685989206e-01
6.0503326321766804e-01
6.0861990883954209e-01
6.1237793298090926e-01
6.1609003638637061e-01
6.1975621905593659e-01
6.2343470614959384e-01
6.2728457176276431e-01
6.3108851664002330e-01
6.3484654078138181e-01
6.3861686934683282e-01
6.4234127717639744e-01
6.4607798943005079e-01
6.4982700610780386e-01
6.5357272582504844e-01
4.7236689582170988e-01
3.4071868420511392e-01
2.5862809097488815e-01
1.6325857391943421e-01
1.1744667525008456e-01
5.8355852755502889e-02
-1.4013893564477940e-02
-8.2825562968949412e-02
-1.0207961398750208e-01
-1.3461258883129207e-01
-1.8042448750041135e-01
-2.2267830925409496e-01
-2.7821105483329872e-01
-3.3018572349699560e-01
-3.7860231524533250e-01
-4.2797229082964494e-01
-4.2778464802816174e-01
-4.4087592905192313e-01
-4.6724613390096598e-01
-4.9005826183462631e-01
-5.2614931359368367e-01
-5.5868228843730749e-01
-5.8765718636558950e-01
-6.1758546812988224e-01
-6.6079267371977823e-01
-7.0044180239417042e-01
-7.3653285415317127e-01
-7.7357728974818130e-01
-8.0706364842793576e-01
-8.4150339094366877e-01
-8.7689651729547746e-01
-9.1203418521826018e-01
-8.9761423475532043e-01
-8.9647320811763520e-01
-9.0861110530520106e-01
-9.1719092557742210e-01
-9.3904966967495462e-01
-9.5735033685710591e-01
-9.7209292712392781e-01
-9.8778890122678664e-01
-1.0167637991550880e+00
-1.0421806201679578e+00
-1.0640393642654689e+00
-1.0868514921990100e+00
-1.1061055432172726e+00
-1.1263129780715493e+00
-1.1474737967618971e+00
-1.1683791570232498e+00
-1.2025634411102577e+00
-1.2331896482817668e+00
-1.2602577785378635e+00
-1.2882792926299937e+00
-1.3127427298068128e+00
-1.3381595508196440e+00
-1.3645297556685585e+00
-1.3906445020884639e+00
-1.4132011715931834e+00
-1.4367112249338851e+00
-1.4611746621106356e+00
-1.4853826408583899e+00
-1.5105440034422888e+00
-1.5354499075971646e+00
-1.5601003533230879e+00
-1.5848192489286974e+00
-1.3938378847078272e+00
-1.2606532309148690e+00
-1.1852652875494463e+00
-1.0943907622999924e+00
-1.0613129474778418e+00
-1.0127485507716343e+00
-9.4869757218123274e-01
-8.8879621070033965e-01
-8.8669155964664159e-01
-8.6910032670885162e-01
-8.3602251188692001e-01
-8.0709431417441879e-01
-7.6267953457763205e-01
-7.2241437209033776e-01
-6.8629882671242193e-01
-6.4907139478122777e-01
-6.6964067327723154e-01
-6.7472336988909565e-01
-6.6431948461683454e-01
-6.5806521645395255e-01
-6.3632436640688883e-01
-6.1873313346924275e-01
-6.0529151764096467e-01
-5.9073801525936420e-01
-5.6069793099344967e-01
-5.3480746383700528e-01
-5.1306661378995821e-01
-4.9021387718959808e-01
-4.7151075769855499e-01
-4.5169575165421411e-01
-4.3076885905651940e-01
-4.1013989556291336e-01
-4.4730764535144463e-01
-4.6898881249082319e-01
-4.7518339698111045e-01
-4.8552759878571433e-01
-4.8038521794123468e-01
-4.7939245441109313e-01
-4.8254930819528685e-01
-4.8459427537120292e-01
-4.7115265989799082e-01
-4.6186066173914592e-01
-4.5671828089464195e-01
-4.5046401344187603e-01
-4.4835936330343562e-01
-4.4514282655673110e-01
-4.4081440320175347e-01
-4.3678390896554570e-01
-4.1726683208010795e-01
-4.0189937250907726e-01
-3.9068153025241015e-01
-3.7835180138748764e-01
-3.7017168983688969e-01
-3.6087969167804052e-01
-3.5047580691091385e-01
-3.4036985126257080e-01
-3.3441351292851385e-01
-3.2734528798621132e-01
-3.1916517643564335e-01
-3.1128299400385107e-01
-3.0228892496376059e-01
-2.9359278504245628e-01
-2.8519457423991368e-01
-2.7671653357061476e-01
-2.6823849021772966e-01
-2.5976044758392686e-01
-2.5128240566918247e-01
-2.4280436356178450e-01
-2.3432632217341204e-01
-2.2584828059239484e-01
-2.1737023881870893e-01
-2.0889219709666598e-01
-2.0041415609360380e-01
-1.9193611489790890e-01
-1.8345807350955723e-01
-1.7498003217284533e-01
-1.6650199064344395e-01
-1.5802394916569112e-01
-1.4954590773956283e-01
-1.4106786629961937e-01
-1.3258982557859555e-01
-1.2411178466495540e-01
-1.1563374355867484e-01
-1.0715570250402967e-01
-9.8677661256711360e-02
-9.0199620061037211e-02
-8.1721578916983284e-02
-7.3243537759115296e-02
-6.4765496408529438e-02
-5.6287455109599711e-02
-4.7809413862302176e-02
-3.9331372601187395e-02
-3.0853331391672026e-02
-2.2375290168348189e-02
-1.3897248931191913e-02
-5.4192076977595816e-03
3.0588313021397886e-03
1.1536870900494958e-02
2.0014911097329904e-02
2.8492951133785124e-02
3.6970991768752876e-02
4.5449032243332133e-02
5.3927072557546855e-02
6.2405112914713581e-02
7.0883153870437560e-02
7.9361194665761053e-02
8.7839235300708057e-02
9.6317275978610270e-02
1.0479531649616869e-01
1.1327335705667355e-01
1.2175139766014881e-01
1.3022943825209266e-01
1.3870748094454713e-01
1.4718552307415392e-01
1.5566356464093703e-01
1.6414160635851074e-01
1.7261964751329345e-01
1.8109768881885802e-01
1.8957573027522839e-01
1.9805377169117289e-01
2.0653181254437120e-01
2.1500985354833935e-01
2.2348789470310132e-01
2.3196593581744065e-01
2.4044397708260656e-01
2.4892201830734104e-01
2.5740005949166811e-01
2.6587810068680473e-01
2.7435613472130937e-01
2.8283417067448202e-01
2.9131220854634665e-01
2.9979024590408176e-01
3.0826828518054156e-01
3.1674632394286306e-01
3.2522436219107037e-01
3.3370240057701661e-01
3.4218044088173222e-01
3.5065848067229760e-01
3.5913651994873669e-01
3.6761455936291793e-01
3.7609259826300562e-01
3.8457063730082680e-01
3.9304867647640523e-01
4.0152671561505415e-01
4.1000475988061480e-01
4.1848280277240613e-01
4.2696084429045200e-01
4.3543888617657422e-01
4.4391692668898386e-01
4.5239496756946113e-01
4.6087300881802995e-01
4.6935104996795135e-01
4.7782909610238056e-01
4.8630714090119737e-01
4.9478518436442570e-01
5.0326322818550639e-01
5.1174127067103137e-01
5.2021931351439998e-01
5.2869735671563600e-01
5.3717539982096418e-01
5.4565342433207698e-01
5.5413145382547724e-01
5.6260948830118895e-01
5.7108752144187680e-01
5.7956555956490874e-01
5.8804359635290804e-01
5.9652163180589879e-01
6.0499966761658630e-01
6.1347771707854470e-01
6.2195576288263865e-01
6.3043380502889201e-01
6.3891184815524316e-01
6.4738989997758589e-01
6.5586794946982718e-01
6.6434599663199101e-01
6.7282404441847943e-01
6.8130205904398788e-01
6.8978008255493650e-01
6.9825811495134948e-01
7.0673614496689197e-01
7.1521419946770637e-01
7.2369224740769456e-01
7.3217030910303471e-01
7.4064836711262172e-01
7.4912637222486922e-01
7.5760439151089864e-01
7.6608244993893793e-01
7.7456052925549945e-01
7.8303852794327966e-01
8.6262886152330231e-01
1.0431661406386086e+00
